[
  {
    "normalForm": "essen",
    "id": 19,
    "translations": [ "to eat" ],
    "present": {
      "singSecond": "isst",
      "singThird": "isst"
    },
    "preterite": {
      "singFirst": "aß",
      "singSecond": [ "aßt", "aßest" ],
      "singThird": "aß",
      "plurFirst": "aßen",
      "plurSecond": "aßt",
      "plurThird": "aßen"
    }
  }
]