[
  {
    "normalForm": "gehen",
    "id": 14,
    "translations": [ "to go" ]
  },
  {
    "normalForm": "grillen",
    "id": 26,
    "translations": "to grill"
  },
  {
    "normalForm": "gabeln",
    "id": 744
  },
  {
    "normalForm": "gackern",
    "id": 745
  },
  {
    "normalForm": "gaffen",
    "id": 746
  },
  {
    "normalForm": "gähnen",
    "id": 747
  },
  {
    "normalForm": "galoppieren",
    "id": 748
  },
  {
    "normalForm": "galvanisieren",
    "id": 749
  },
  {
    "normalForm": "gamen",
    "id": 750
  },
  {
    "normalForm": "gammeln",
    "id": 751
  },
  {
    "normalForm": "gängeln",
    "id": 752
  },
  {
    "normalForm": "garantieren",
    "id": 753
  },
  {
    "normalForm": "garen",
    "id": 754
  },
  {
    "normalForm": "garnieren",
    "id": 755
  },
  {
    "normalForm": "gäten",
    "id": 756
  },
  {
    "normalForm": "gaukeln",
    "id": 757
  },
  {
    "normalForm": "gaunern",
    "id": 758
  },
  {
    "normalForm": "gebärden",
    "id": 759
  },
  {
    "normalForm": "gebrauchen",
    "id": 760
  },
  {
    "normalForm": "gebühren",
    "id": 761
  },
  {
    "normalForm": "gecken",
    "id": 762
  },
  {
    "normalForm": "gedenken",
    "id": 763
  },
  {
    "normalForm": "gefährden",
    "id": 764
  },
  {
    "normalForm": "gegenbeschuldigen",
    "id": 765
  },
  {
    "normalForm": "gegenchecken",
    "id": 766
  },
  {
    "normalForm": "gegenüberstellen",
    "id": 767
  },
  {
    "normalForm": "gegenzeichnen",
    "id": 768
  },
  {
    "normalForm": "gehorchen",
    "id": 769
  },
  {
    "normalForm": "gehören",
    "id": 770
  },
  {
    "normalForm": "gehren",
    "id": 771
  },
  {
    "normalForm": "geifern",
    "id": 772
  },
  {
    "normalForm": "geizen",
    "id": 773
  },
  {
    "normalForm": "gelangen",
    "id": 774
  },
  {
    "normalForm": "geleiten",
    "id": 775
  },
  {
    "normalForm": "gelieren",
    "id": 776
  },
  {
    "normalForm": "gellen",
    "id": 777
  },
  {
    "normalForm": "geloben",
    "id": 778
  },
  {
    "normalForm": "gendern",
    "id": 779
  },
  {
    "normalForm": "genehmigen",
    "id": 780
  },
  {
    "normalForm": "generalisieren",
    "id": 781
  },
  {
    "normalForm": "generieren",
    "id": 782
  },
  {
    "normalForm": "genieren",
    "id": 783
  },
  {
    "normalForm": "genügen",
    "id": 784
  },
  {
    "normalForm": "gerben",
    "id": 785
  },
  {
    "normalForm": "gereuen",
    "id": 786
  },
  {
    "normalForm": "gerieren",
    "id": 787
  },
  {
    "normalForm": "geringschätzen",
    "id": 788
  },
  {
    "normalForm": "germanisieren",
    "id": 789
  },
  {
    "normalForm": "geruhen",
    "id": 790
  },
  {
    "normalForm": "geschäften",
    "id": 791
  },
  {
    "normalForm": "gesellen",
    "id": 792
  },
  {
    "normalForm": "gestalten",
    "id": 793
  },
  {
    "normalForm": "gestatten",
    "id": 794
  },
  {
    "normalForm": "gestikulieren",
    "id": 795
  },
  {
    "normalForm": "gesundschrumpfen",
    "id": 796
  },
  {
    "normalForm": "geten",
    "id": 797
  },
  {
    "normalForm": "getrauen",
    "id": 798
  },
  {
    "normalForm": "gewahren",
    "id": 799
  },
  {
    "normalForm": "gewähren",
    "id": 800
  },
  {
    "normalForm": "gewährleisten",
    "id": 801
  },
  {
    "normalForm": "gewärtigen",
    "id": 802
  },
  {
    "normalForm": "gewittern",
    "id": 803
  },
  {
    "normalForm": "gewöhnen",
    "id": 804
  },
  {
    "normalForm": "geziemen",
    "id": 805
  },
  {
    "normalForm": "gibbeln",
    "id": 806
  },
  {
    "normalForm": "gieren",
    "id": 807
  },
  {
    "normalForm": "gilben",
    "id": 808
  },
  {
    "normalForm": "gilden",
    "id": 809
  },
  {
    "normalForm": "gipfeln",
    "id": 810
  },
  {
    "normalForm": "glänzen",
    "id": 811
  },
  {
    "normalForm": "glasieren",
    "id": 812
  },
  {
    "normalForm": "glattbügeln",
    "id": 813
  },
  {
    "normalForm": "glätten",
    "id": 814
  },
  {
    "normalForm": "glattstellen",
    "id": 815
  },
  {
    "normalForm": "glauben",
    "id": 816
  },
  {
    "normalForm": "glawben",
    "id": 817
  },
  {
    "normalForm": "gleichbehandeln",
    "id": 818
  },
  {
    "normalForm": "gleichmachen",
    "id": 819
  },
  {
    "normalForm": "gleichschalten",
    "id": 820
  },
  {
    "normalForm": "gleichsetzen",
    "id": 821
  },
  {
    "normalForm": "gleichstellen",
    "id": 822
  },
  {
    "normalForm": "gleißen",
    "id": 823
  },
  {
    "normalForm": "gliedern",
    "id": 824
  },
  {
    "normalForm": "glimmen",
    "id": 825
  },
  {
    "normalForm": "glitzern",
    "id": 826
  },
  {
    "normalForm": "globalisieren",
    "id": 827
  },
  {
    "normalForm": "glorifizieren",
    "id": 828
  },
  {
    "normalForm": "glosen",
    "id": 829
  },
  {
    "normalForm": "glottalisieren",
    "id": 830
  },
  {
    "normalForm": "glotzen",
    "id": 831
  },
  {
    "normalForm": "glucken",
    "id": 832
  },
  {
    "normalForm": "glücken",
    "id": 833
  },
  {
    "normalForm": "glucksen",
    "id": 834
  },
  {
    "normalForm": "glühen",
    "id": 835
  },
  {
    "normalForm": "glupschen",
    "id": 836
  },
  {
    "normalForm": "gnaden",
    "id": 837
  },
  {
    "normalForm": "golfen",
    "id": 838
  },
  {
    "normalForm": "gönnen",
    "id": 839
  },
  {
    "normalForm": "googeln",
    "id": 840
  },
  {
    "normalForm": "googlen",
    "id": 841
  },
  {
    "normalForm": "goutieren",
    "id": 842
  },
  {
    "normalForm": "grabbeln",
    "id": 843
  },
  {
    "normalForm": "grämen",
    "id": 844
  },
  {
    "normalForm": "grammatikalisieren",
    "id": 845
  },
  {
    "normalForm": "granteln",
    "id": 846
  },
  {
    "normalForm": "graphitieren",
    "id": 847
  },
  {
    "normalForm": "grapschen",
    "id": 848
  },
  {
    "normalForm": "grasen",
    "id": 849
  },
  {
    "normalForm": "grassieren",
    "id": 850
  },
  {
    "normalForm": "gratulieren",
    "id": 851
  },
  {
    "normalForm": "grauen",
    "id": 852
  },
  {
    "normalForm": "grausen",
    "id": 853
  },
  {
    "normalForm": "gravieren",
    "id": 854
  },
  {
    "normalForm": "greinen",
    "id": 855
  },
  {
    "normalForm": "grenzen",
    "id": 856
  },
  {
    "normalForm": "grienen",
    "id": 857
  },
  {
    "normalForm": "grillieren",
    "id": 859
  },
  {
    "normalForm": "grinsen",
    "id": 860
  },
  {
    "normalForm": "grölen",
    "id": 861
  },
  {
    "normalForm": "grollen",
    "id": 862
  },
  {
    "normalForm": "grübeln",
    "id": 863
  },
  {
    "normalForm": "grummeln",
    "id": 864
  },
  {
    "normalForm": "gründeln",
    "id": 865
  },
  {
    "normalForm": "gründen",
    "id": 866
  },
  {
    "normalForm": "grünen",
    "id": 867
  },
  {
    "normalForm": "grunzen",
    "id": 868
  },
  {
    "normalForm": "gruppieren",
    "id": 869
  },
  {
    "normalForm": "gruseln",
    "id": 870
  },
  {
    "normalForm": "grüssen",
    "id": 871
  },
  {
    "normalForm": "grüßen",
    "id": 872
  },
  {
    "normalForm": "gucken",
    "id": 873
  },
  {
    "normalForm": "gurgeln",
    "id": 874
  },
  {
    "normalForm": "gurren",
    "id": 875
  },
  {
    "normalForm": "gürten",
    "id": 876
  },
  {
    "normalForm": "gustieren",
    "id": 877
  },
  {
    "normalForm": "gutmachen",
    "id": 878
  }
  
]