[
  {
    "normalForm": "haben",
    "id": 4,
    "translations": [ "to have:*", "to get" ],
    "present": {
      "singSecond": "hast"
    },
    "preterite": {
      "stem": "hat"
    }
  },
  {
    "normalForm": "husten",
    "id": 18,
    "translations": [ "to cough" ]
  },
  {
    "normalForm": "heißen",
    "id": 1,
    "translations": [ "to be called" ]
  },
  {
    "normalForm": "hören",
    "id": 30,
    "translations": [ "to hear", "to listen" ]
  }
]
