[
  {
    "normalForm": "wald",
    "id": 100033,
    "translations": "forest",
    "gender": "m"
  },
  {
    "normalForm": "wasser",
    "id": 100057,
    "translations": "water",
    "gender": "n"
  },
  {
    "normalForm": "wein",
    "id": 100054,
    "translations": "wine",
    "gender": "m",
    "related": 100053
  },
  {
    "normalForm": "wurst",
    "id": 100008,
    "translations": "sausage",
    "gender": "n"
  },
  {
    "normalForm": "wort",
    "id": 100001,
    "translations": "word",
    "gender": "n"
  },
  {
    "normalForm": "wörterbuch",
    "id": 100007,
    "translations": "dictionary",
    "gender": "n"
  }
]